<svg xmlns="http://www.w3.org/2000/svg" viewBox="0 0 48 48">
 <defs>
  <radialGradient id="radialGradient3850" cx="24.08" cy="41.38" r="21.08" gradientTransform="matrix(1,0,0,0.11307633,0,36.703704)" gradientUnits="userSpaceOnUse">
   <stop style="stop-color:#000;stop-opacity:0.392"/>
   <stop offset="1" style="stop-color:#000;stop-opacity:0"/>
  </radialGradient>
 </defs>
 <g>
  <path d="m 45.15 41.38 a 21.08 2.383 0 1 1 -42.15 0 21.08 2.383 0 1 1 42.15 0 z" transform="matrix(1.1387537,0,0,1.0490275,-3.4162611,-1.9120725)" style="fill:url(#radialGradient3850);opacity:0.65;fill-opacity:1;stroke:none"/>
 </g>
 <g transform="translate(0,-1004.3622)">
  <rect width="30" height="23" x="9" y="1006.36" rx="2" style="fill:#eae7d1;fill-opacity:1;stroke:none"/>
  <rect y="1021.36" x="12" height="2" width="24" style="fill:#7a7a68;fill-opacity:1;stroke:none"/>
  <path d="m 45 1024.36 0 22 -42 0 0 -20 20 0 2 -4 18 0 c 1 0 2 1 2 2 z" style="fill:#a566ff;fill-opacity:1;stroke:none"/>
  <path d="m 3 1045.36 0 1 42 0 0 -1 z" style="fill:#000;opacity:0.15;fill-opacity:1;stroke:none"/>
  <path d="m 25 1022.36 -2 4 -20 0 0 1 21 0 2 -4 17 0 c 1 0 2 1 2 2 l 0 -1 c 0 -1 -1 -2 -2 -2 z" style="fill:#000;opacity:0.03;fill-opacity:1;stroke:none"/>
  <rect width="24" height="2" x="12" y="1009.36" style="fill:#7a7a68;fill-opacity:1;stroke:none"/>
  <rect y="1013.36" x="12" height="2" width="24" style="fill:#7a7a68;fill-opacity:1;stroke:none"/>
  <rect width="24" height="2" x="12" y="1017.36" style="fill:#7a7a68;fill-opacity:1;stroke:none"/>
 </g>
</svg>
