<svg xmlns="http://www.w3.org/2000/svg" viewBox="0 0 64 64">
 <defs>
  <radialGradient id="radialGradient3964" cx="32.5" cy="56.5" r="33.5" gradientTransform="matrix(1,0,0,0.10447761,0,50.597015)" gradientUnits="userSpaceOnUse">
   <stop style="stop-color:#000;stop-opacity:1"/>
   <stop offset="1" style="stop-color:#000;stop-opacity:0"/>
  </radialGradient>
 </defs>
 <g transform="translate(0,-988.3622)">
  <path d="m 66 56.5 c 0 1.933 -14.998 3.5 -33.5 3.5 -18.502 0 -33.5 -1.567 -33.5 -3.5 0 -1.933 14.998 -3.5 33.5 -3.5 18.502 0 33.5 1.567 33.5 3.5 z" transform="matrix(1.1343284,0,0,1.1428571,-4.8656716,979.79077)" style="fill:url(#radialGradient3964);opacity:0.6;fill-opacity:1;stroke:none"/>
  <path d="m 0 997.42 0 42.823 64 0 0 -21.412 -3.048 -18.353 l -23.952 -0.118 l -3 -6 -30.952 0 c -1.524 0 -3.048 1.529 -3.048 3.059 z" style="fill:#A682D9;fill-opacity:1;stroke:none"/>
  <rect width="31.571" height="11.882" x="5" y="1002.36" style="fill:#fffdf0;fill-opacity:1;stroke:none"/>
  <path d="M 3.0625,6 C 1.538691,6 0,7.53308 0,9.0625 l 0,2 C 0,9.53308 1.538691,8 3.0625,8 L 33,8 36,14 60.9375,14.125 64,32.46875 l 0,-2 L 60.9375,12.125 37,12 34,6 z" transform="translate(0,988.3622)" style="fill:#000;opacity:0.03;fill-opacity:1;stroke:none"/>
  <path d="m 64 1003.54 0 42.824 -64 0 0 -40 30 0 3 -6 27.952 0.118 c 1.524 0 3.048 1.529 3.048 3.059 z" style="fill:#a566ff;fill-opacity:1;stroke:none"/>
  <path d="m 0 1044.36 0 2 64 0 0 -2 z" style="fill:#000;opacity:0.15;fill-opacity:1;stroke:none"/>
  <path d="m 33 12 -3 6 -30 0 0 2 31 0 3 -6 26.938 0.125 c 1.524 0 3.063 1.533 3.063 3.063 l 0 -2 c 0 -1.529 -1.539 -3.063 -3.063 -3.063 z" transform="translate(0,988.3622)" style="fill:#000;opacity:0.03;fill-opacity:1;stroke:none"/>
  <path d="m 35.858 1013.36 c -2.809 0 -5.126 2.189 -5.126 4.928 0.021 0.94 0.072 2.13 0.606 4.645 l 0.055 0 c 0.108 0.333 0.274 0.663 0.551 1.02 0.248 0.319 0.578 0.682 0.882 1.02 0.093 0.711 0.108 1.332 0 2.096 -0.834 0.651 -2.338 1.258 -3.693 1.813 -0.706 0.289 -1.359 0.556 -1.874 0.906 -0.491 0.334 -0.847 0.789 -0.882 1.36 -0.002 0.027 -0.055 0.029 -0.055 0.056 l -0.606 4.815 0 0.057 c 0 0.597 0.387 1.085 0.937 1.473 0.55 0.388 1.297 0.692 2.205 0.963 1.816 0.542 4.279 0.85 7 0.85 2.721 0 5.184 -0.308 7 -0.85 0.908 -0.271 1.655 -0.575 2.205 -0.963 0.55 -0.388 0.937 -0.876 0.937 -1.473 l 0 -0.057 -0.661 -4.815 c 0 -0.018 0.001 -0.038 0 -0.056 -0.016 -0.273 -0.112 -0.541 -0.276 -0.736 -0.175 -0.209 -0.405 -0.345 -0.661 -0.51 -0.513 -0.329 -1.168 -0.607 -1.874 -0.906 -1.372 -0.581 -2.873 -1.238 -3.693 -1.926 -0.061 -0.657 -0.064 -1.326 0 -1.983 0.296 -0.36 0.629 -0.73 0.882 -1.076 0.282 -0.385 0.495 -0.734 0.606 -1.076 0.603 -2.618 0.63 -3.687 0.661 -4.645 0 -2.739 -2.317 -4.928 -5.126 -4.928 z m -9.535 0.906 c -2.307 0 -4.189 1.831 -4.189 4.078 0.017 0.77 0.057 1.675 0.496 3.739 l 0 0.057 c 0.089 0.276 0.265 0.497 0.496 0.793 0.202 0.259 0.472 0.578 0.717 0.85 0.074 0.57 0.084 1.145 0 1.756 -0.681 0.537 -1.916 1.019 -3.03 1.473 -0.578 0.235 -1.066 0.451 -1.488 0.736 -0.399 0.27 -0.683 0.672 -0.717 1.133 -0.002 0.027 -0.055 0.029 -0.055 0.057 l -0.551 3.908 l 0 0.056 c 0 0.368 0.171 0.686 0.441 0.963 0.27 0.277 0.644 0.532 1.102 0.736 0.903 0.404 2.19 0.685 3.748 0.85 l 0.055 0 c 0.085 0 0.169 -0.024 0.22 -0.057 0.064 -0.042 0.138 -0.074 0.165 -0.112 0.054 -0.078 0.087 -0.156 0.11 -0.227 0.041 -0.123 0.049 -0.27 0.055 -0.397 0.001 -0.018 0 -0.038 0 -0.056 l 0.606 -4.815 c -0.001 -0.197 0.132 -0.434 0.441 -0.68 0.309 -0.246 0.777 -0.493 1.323 -0.736 1.092 -0.486 2.476 -0.938 3.583 -1.529 l 0.606 -0.34 -0.606 -0.283 c -0.437 -0.218 -0.772 -0.458 -1.047 -0.68 -0.053 -0.559 -0.057 -1.142 0 -1.699 0.002 -0.018 -0.002 -0.038 0 -0.056 0.42 -0.582 0.74 -1.185 0.882 -1.529 l 0.055 -0.112 -0.055 -0.112 c -0.048 -0.281 -0.032 -0.495 -0.11 -0.736 -0.528 -2.485 -0.586 -3.509 -0.606 -4.418 0 -0.382 0.087 -0.827 0.22 -1.246 l 0.11 -0.227 -0.22 -0.112 c -0.736 -0.605 -1.71 -1.02 -2.756 -1.02 z" style="fill:#24202b;opacity:1;fill-opacity:1;color:#000"/>
 </g>
</svg>
