<svg xmlns="http://www.w3.org/2000/svg" viewBox="0 0 16 16">
 <g transform="translate(0,-1036.3622)">
  <path d="m 12.5 1.313 c -1.925 0 -3.5 1.515 -3.5 3.375 c 0 0.624 0.19 1.214 0.5 1.719 l 0 3.656 c -0.381 0.076 -0.734 0.244 -1.031 0.469 l -3.469 -1.5 c 0 -1.327 -1.125 -2.406 -2.5 -2.406 c -1.372 0 -2.5 1.079 -2.5 2.406 c 0 1.329 1.127 2.438 2.5 2.438 c 0.557 0 1.083 -0.199 1.5 -0.5 l 3.5 1.531 c 0.036 1.299 1.15 2.344 2.5 2.344 c 1.375 0 2.5 -1.077 2.5 -2.406 c 0 -0.554 -0.203 -1.06 -0.531 -1.469 l 0.031 0 l 1.844 -3.156 c 0.013 -0.005 0.018 -0.026 0.031 -0.031 c 1.234 -0.525 2.125 -1.713 2.125 -3.094 c 0 -1.858 -1.577 -3.375 -3.5 -3.375 z m 0 1.125 c 1.293 0 2.313 1 2.313 2.25 c 0 1.252 -1.02 2.25 -2.313 2.25 c -1.295 0 -2.313 -0.998 -2.313 -2.25 c 0 -1.25 1.017 -2.25 2.313 -2.25 z m 0 0.813 c -0.827 0 -1.5 0.634 -1.5 1.438 c 0 0.8 0.673 1.438 1.5 1.438 c 0.83 0 1.5 -0.637 1.5 -1.438 c 0 -0.803 -0.67 -1.438 -1.5 -1.438 z m -10 4.344 c 0.821 0 1.289 0.32 1.438 0.969 l -0.875 -0.375 c -0.567 -0.233 -1.228 0.011 -1.469 0.563 c -0.241 0.548 0.026 1.176 0.594 1.406 l 0.656 0.313 c -0.11 0.015 -0.219 0.031 -0.344 0.031 c -1 0 -1.5 -0.5 -1.5 -1.469 c 0 -0.966 0.5 -1.438 1.5 -1.438 z m 7.5 3.219 c 0.926 0 1.656 0.731 1.656 1.625 c 0 0.894 -0.731 1.594 -1.656 1.594 c -0.752 0 -1.386 -0.467 -1.594 -1.125 l 1.188 0.5 c 0.567 0.233 1.228 -0.043 1.469 -0.594 c 0.241 -0.548 -0.026 -1.175 -0.594 -1.406 l -1.094 -0.469 c 0.192 -0.074 0.405 -0.125 0.625 -0.125 z" transform="translate(0,1036.3622)" style="fill:#a566ff;opacity:1;fill-opacity:1;stroke:none;fill-rule:nonzero"/>
 </g>
</svg>
