<svg viewBox="0 0 16 16" xmlns="http://www.w3.org/2000/svg">
 <rect width="12" style="fill:#A682D9;fill-opacity:1;stroke:none" rx="1" x="2" height="9"/>
 <path style="fill:#fff1ed;opacity:0.6;fill-opacity:1;stroke:none" d="m 8 0.998 l -4 3 l 2 0 l 0 11 l 4 0 l 0 -11 l 2 0 l -4 -3 z"/>
 <path style="fill:#a566ff;fill-opacity:1;stroke:none" d="m 16 5.998 0 10 -16 0 0 -9 7 0 1 -2 7 0 c 0.5 0 1 0.5 1 1 z"/>
 <path style="fill:#000;opacity:0.15;fill-opacity:1;stroke:none" d="m 0 14.998 0 1 16 0 0 -1 z"/>
 <path style="fill:#000;opacity:0.03;fill-opacity:1;stroke:none" d="M 8,5 7,7 0,7 0,8 8,8 9,6 15,6 c 0.5,0 1,0.5 1,1 L 16,6 C 16,5.5 15.5,5 15,5 Z"/>
 <path style="fill:#000;opacity:0.03;fill-opacity:1;stroke:none" d="M 3,0 C 2.446,0 2,0.446 2,1 L 2,2 C 2,1.446 2.446,1 3,1 l 10,0 c 0.554,0 1,0.446 1,1 L 14,1 C 14,0.446 13.554,0 13,0 L 3,0 Z"/>
</svg>
